{
    "items":[
        {
            "key": "language",
            "value": "golang",
            "pipelinescount": 7
        },
        {
            "key": "app-group",
            "value": "ziplinee-ci",
            "pipelinescount": 5
        },
        {
            "key": "app-group",
            "value": "ziplinee-ci-extensions",
            "pipelinescount": 3
        },
        {
            "key": "app-group",
            "value": "ziplinee-kube-controllers",
            "pipelinescount": 3
        },
        {
            "key": "team",
            "value": "ziplinee-team",
            "pipelinescount": 2
        },
        {
            "key": "team",
            "value": "ziplinee-ci-team",
            "pipelinescount": 2
        },
        {
            "key": "team",
            "value": "ziplinee-extension-team",
            "pipelinescount": 2
        },
        {
            "key": "language",
            "value": "docker",
            "pipelinescount": 2
        }
    ],
    "pagination":{"page":1,"size":20,"totalPages":4,"totalItems":68}
}
